2 Data processing, transformation and ploting in R – Statistics II
…
We will use the tidyverse package, a comprehensive suite of R packages designed for data manipulation, transformation, and visualization tasks, all of which work together in harmony.

# Import tidyverse

library(tidyverse)

2.1 Import dataset

If the dataset is saved in the subfolder named “data” of our RStudio project, we can read it with the read_excel() function from readxl package as follows:

library(readxl)
dat <- read_excel("data/shock_index.xlsx")
dat

# A tibble: 30 × 4
   sex     Age   SBP    HR
   <chr> <dbl> <dbl> <dbl>
 1 M        54   139    85
 2 F        47   151    84
 3 F        58   200   100
 4 M        NA   170    56
 5 F        60   123    55
 6 F        57   121    90
 7 M        54   120    84
 8 M        NA   100    92
 9 F        53   164    72
10 M        58   161   102
# ℹ 20 more rows

Choosing informative column names can significantly enhance the clarity and interpretability of our dataset. For instance, renaming HR to Heart.Rate offers a more intuitive and informative label for the heart rate variable.

# rename HR to Heart.Rate
dat <- rename(dat, Heart.Rate = HR)
dat

# A tibble: 30 × 4
   sex     Age   SBP Heart.Rate
   <chr> <dbl> <dbl>      <dbl>
 1 M        54   139         85
 2 F        47   151         84
 3 F        58   200        100
 4 M        NA   170         56
 5 F        60   123         55
 6 F        57   121         90
 7 M        54   120         84
 8 M        NA   100         92
 9 F        53   164         72
10 M        58   161        102
# ℹ 20 more rows

It’s crucial to ensure that the column names are consistent with the naming conventions in R. This can be achieved by using the clean_names() function from the janitor package, which standardizes column names by converting them to lowercase, removing special characters, and replacing spaces with underscores.

# load the janitor package
library(janitor)

# clean names
dat <- clean_names(dat)
dat

# A tibble: 30 × 4
   sex     age   sbp heart_rate
   <chr> <dbl> <dbl>      <dbl>
 1 M        54   139         85
 2 F        47   151         84
 3 F        58   200        100
 4 M        NA   170         56
 5 F        60   123         55
 6 F        57   121         90
 7 M        54   120         84
 8 M        NA   100         92
 9 F        53   164         72
10 M        58   161        102
# ℹ 20 more rows

2.2 Converting to the appropriate data type

We might have noticed that the categorical variable sex is coded as F (for females) and M (for males), so it is recognized of character type. We can use the factor() function to encode a variable as a factor:

# convert sex to a factor variable with levels female, male
dat$sex <- factor(dat$sex, levels = c("F", "M"), labels = c("female", "male"))
dat

# A tibble: 30 × 4
   sex      age   sbp heart_rate
   <fct>  <dbl> <dbl>      <dbl>
 1 male      54   139         85
 2 female    47   151         84
 3 female    58   200        100
 4 male      NA   170         56
 5 female    60   123         55
 6 female    57   121         90
 7 male      54   120         84
 8 male      NA   100         92
 9 female    53   164         72
10 male      58   161        102
# ℹ 20 more rows
…
2.3.2 Subsetting variables (columns)

When working with data frames, selecting specific variables (columns) for analysis is a common task. For instance, suppose we want to select only the age, and heart_rate variables from the data frame.

Basic way

Subsetting variables can be achieved by indexing the variables’ names within [ ], as follows:

dat6 <- dat[ , c("age" , "heart_rate")]
dat6

# A tibble: 30 × 2
     age heart_rate
   <dbl>      <dbl>
 1    54         85
 2    47         84
 3    58        100
 4    NA         56
 5    60         55
 6    57         90
 7    54         84
 8    NA         92
 9    53         72
10    58        102
# ℹ 20 more rows

By specifying the column indices, such as c(2, 4), within brackets, we can select the data in columns 2, and 4 as follows:

dat7 <- dat[ , c(2, 4)]
dat7

# A tibble: 30 × 2
     age heart_rate
   <dbl>      <dbl>
 1    54         85
 2    47         84
 3    58        100
 4    NA         56
 5    60         55
 6    57         90
 7    54         84
 8    NA         92
 9    53         72
10    58        102
# ℹ 20 more rows

Tidyverse way

In select() function we pass the data frame first and then the variables separated by commas. Quotes are optional for column names that don’t contain special characters or spaces.

dat8 <- select(dat, age, heart_rate)
dat8

# A tibble: 30 × 2
     age heart_rate
   <dbl>      <dbl>
 1    54         85
 2    47         84
 3    58        100
 4    NA         56
 5    60         55
 6    57         90
 7    54         84
 8    NA         92
 9    53         72
10    58        102
# ℹ 20 more rows

Or we can exclude the variables sex and sbp.

dat9 <- select(dat, -c(sex, sbp))
dat9

# A tibble: 30 × 2
     age heart_rate
   <dbl>      <dbl>
 1    54         85
 2    47         84
 3    58        100
 4    NA         56
 5    60         55
 6    57         90
 7    54         84
 8    NA         92
 9    53         72
10    58        102
# ℹ 20 more rows

2.3.3 Creating new variables

Data analysis often involves creating new variables within data frames based on existing variables. This data transformation process involves adding new columns to a data frame derived from the values of one or more existing columns.

Suppose we want to compute a new variable representing the ratio of heart rate to systolic blood pressure (HR/sbp), which we will call shock_index. We can achieve this by using the mutate() function from dplyr package, as follows:

dat10 <- mutate(dat, shock_index = heart_rate / sbp)

dat10

# A tibble: 30 × 5
   sex      age   sbp heart_rate shock_index
   <fct>  <dbl> <dbl>      <dbl>       <dbl>
 1 male      54   139         85       0.612
 2 female    47   151         84       0.556
 3 female    58   200        100       0.5  
 4 male      NA   170         56       0.329
 5 female    60   123         55       0.447
 6 female    57   121         90       0.744
 7 male      54   120         84       0.7  
 8 male      NA   100         92       0.92 
 9 female    53   164         72       0.439
10 male      58   161        102       0.634
# ℹ 20 more rows

Our next step involves categorizing the newly created shock_index variable based on the defined normal range (0.5 to 0.7 beats/mmHg min). This can be done using the case_when() function from the dplyr package.

# convert shock_index into a categorical variable 
# (<0.5 with low, <= 0.7 with normal, > 0.7 high)

dat11 <- mutate(dat10,
                shock_index1 = case_when(shock_index < 0.5 ~ "low",
                                         shock_index <= 0.7 ~ "normal",
                                         TRUE ~ "high"))
dat11

# A tibble: 30 × 6
   sex      age   sbp heart_rate shock_index shock_index1
   <fct>  <dbl> <dbl>      <dbl>       <dbl> <chr>       
 1 male      54   139         85       0.612 normal      
 2 female    47   151         84       0.556 normal      
 3 female    58   200        100       0.5   normal      
 4 male      NA   170         56       0.329 low         
 5 female    60   123         55       0.447 low         
 6 female    57   121         90       0.744 high        
 7 male      54   120         84       0.7   normal      
 8 male      NA   100         92       0.92  high        
 9 female    53   164         72       0.439 low         
10 male      58   161        102       0.634 normal      
# ℹ 20 more rows
…
